…
## Examples

``` r
require(lapop); data(ym23)

# Set Survey Context
ym23lpr <- lpr_data(ym23)

# Multiple outcomes over countries
lpr_ccm(ym23lpr,
outcome_vars = c("b12", "b18"),
rec1 = c(1, 3),
rec2 = c(5, 7),
ttest = TRUE)
#> # A tibble: 41 × 7
#> # Groups:   var [2]
#>    pais   prop    lb    ub proplabel var      se
#>    <fct> <dbl> <dbl> <dbl> <chr>     <chr> <dbl>
#>  1 TT     44.5  42.4  46.7 45%       b12   1.12 
#>  2 NI     43.3  41.0  45.5 43%       b12   1.15 
#>  3 BO     37.7  35.6  39.7 38%       b12   1.05 
#>  4 DO     37.0  35.1  38.9 37%       b12   0.950
#>  5 HN     36.2  34.1  38.3 36%       b12   1.05 
#>  6 AR     34.9  32.9  36.9 35%       b12   1.03 
#>  7 UY     34.3  32.4  36.3 34%       b12   1.01 
#>  8 SR     33.6  31.2  35.9 34%       b12   1.19 
#>  9 PY     31.0  29.4  32.6 31%       b12   0.826
#> 10 CO     30.5  28.7  32.3 31%       b12   0.931
#> # ℹ 31 more rows
…
