LAPOP Multi-Line Time Series Graph Pre-Processing — lpr_mline • lapop
…
    Examples

# \donttest{
require(lapop); data(ym23)

# Set Survey Context
ym23lpr <- lpr_data(ym23)

# Single Variable by Country and Year
lpr_mline(ym23lpr,
outcome = "ing4",
rec = c(5, 7),
xvar = "pais",
use_wave = TRUE)
#> # A tibble: 41 × 6
#> # Groups:   varlabel [23]
#>    varlabel    wave     prop    lb    ub proplabel
#>    <fct>       <chr>   <dbl> <dbl> <dbl> <chr>    
#>  1 México      2018/19  62.7  60.3  65.2 63%      
#>  2 México      2023     61.8  59.4  64.1 62%      
#>  3 Guatemala   2018/19  48.9  46.2  51.5 49%      
#>  4 Guatemala   2023     47.6  44.7  50.5 48%      
#>  5 El Salvador 2018/19  58.6  56.1  61.1 59%      
#>  6 El Salvador 2023     67.2  64.6  69.8 67%      
#>  7 Honduras    2018/19  45.0  42.7  47.4 45%      
#>  8 Honduras    2023     48.5  46.2  50.9 49%      
#>  9 Nicaragua   2018/19  51.5  48.8  54.3 52%      
#> 10 Nicaragua   2023     57.1  54.9  59.2 57%      
#> # ℹ 31 more rows
…
