…
# Single variable in Multiple Countries
lpr_cc(data = ym23lpr,
      outcome = "ing4",
      rec = c(5, 7),
      xvar = "pais")
#> # A tibble: 23 × 5
#>    vallabel              prop proplabel    lb    ub
#>    <fct>                <dbl> <chr>     <dbl> <dbl>
#>  1 Uruguay               75.8 76%        73.8  77.9
#>  2 Costa Rica            72.2 72%        70.3  74.1
#>  3 Argentina             69.4 69%        67.5  71.4
#>  4 Chile                 66.7 67%        64.9  68.6
#>  5 Bahamas               64.9 65%        62.3  67.5
#>  6 El Salvador           62.9 63%        61.1  64.7
#>  7 México                62.2 62%        60.5  63.9
#>  8 Brasil                61.9 62%        59.8  64.0
#>  9 República Dominicana  61.5 62%        59.9  63.1
#> 10 Grenada               58.7 59%        56.1  61.3
#> # ℹ 13 more rows
```
